Nome do Presente,Valor,Tipo,Presenteador (quem vai dar),"Vai mostrar no site ? (1 = Sim, 0 = Não)"
Fruteira de mesa ( vidro ou inox),"R$40,00",normal,,1
Peneira para suco,"R$7,00",normal,,1
Faqueiro,"R$149,90",especial,,1
Escorredor de arroz (preto ou branco),"R$8,00",normal,,1
Jogo de Panelas,"R$349,00",especial,,1
"Panela de Pressão (4,5 L ou 2,5 L)","R$90,00",normal,,1
Escorredor de louças inox,"R$40,00",normal,,1
Lixeira inox,"R$70,00",normal,,1
Ralador inox,"R$ 20,00",normal,,1
Descascador de legume,"R$ 5,00",normal,,1
Abridor de garrafas e latas,"R$ 4,00",normal,,1
Conjunto de utensilios antiaderente inox,"R$ 45,00",normal,,1
"Jogo de faca (tramontina, inox)","R$ 79,90",normal,,1
batedor de carne de ferro fundido,"R$ 10,00",normal,,1
Pegador de macarrão,"R$ 8,00",normal ,,1
Jarra de suco de vidro,"R$ 30,00",normal,,1
Potinhos de sobremesa (vidro),"R$ 40,00",normal,,1
Batedeira de bolo (preta),"R$ 150,00",especial,,1
Conjunto de forma para bolo,"R$ 100,00",normal,,1
Forma de bolo para pudim (redonda),"R$ 29,90",normal,,1
Marinex (com tampa),"R$ 40,00",normal,,1
Pano de Prato ,"R$ 30,00",normal,,1
Pregador para roupas ,"R$ 10,00",normal,,1
2 Baldes de roupas,"R$ 30,00",normal,,1
Cesto de roupas suja ,"R$ 45,00",normal,,1
Churrasqueria elétrica,"R$ 120,00",especial,,1
Microondas inox ,"R$ 499,00",especial,,1
Escorredor de macarrão,"R$ 15,00",normal,,1
Bacias para usos diversos,"R$ 50,00",normal,,1
Bacias tupperware,"R$ 130,00",especial,,1
Forno elétrico,"R$ 529,00",especial,,1
Filtro elétrico,"R$ 699,00",especial,,1